{
    "photos": {
        "page": 1,
        "pages": 48,
        "perpage": 5,
        "total": "236",
        "photo": [
            {
                "id": "40503807683",
                "owner": "160447436@N06",
                "secret": "4e4f2a0cfa",
                "server": "7820",
                "farm": 8,
                "title": "Cheap Flights To Denver From Boston $111RT",
                "ispublic": 1,
                "isfriend": 0,
                "isfamily": 0,
                "url_o": "https://live.staticflickr.com/7820/40503807683_f09cb35286_o.jpg",
                "height_o": "1080",
                "width_o": "1621"
            },
            {
                "id": "40503751773",
                "owner": "160447436@N06",
                "secret": "70e9b12f13",
                "server": "7852",
                "farm": 8,
                "title": "Cheap Flights To Denver From Boston $111RT",
                "ispublic": 1,
                "isfriend": 0,
                "isfamily": 0,
                "url_o": "https://live.staticflickr.com/7852/40503751773_02c0bdb701_o.jpg",
                "height_o": "1080",
                "width_o": "1621"
            },
            {
                "id": "40433538333",
                "owner": "20286982@N07",
                "secret": "bb203ba130",
                "server": "7910",
                "farm": 8,
                "title": "City Park Pavilion",
                "ispublic": 1,
                "isfriend": 0,
                "isfamily": 0,
                "url_o": "https://live.staticflickr.com/7910/40433538333_0de60d81e5_o.jpg",
                "height_o": "2577",
                "width_o": "4606"
            },
            {
                "id": "45362346302",
                "owner": "62007874@N00",
                "secret": "0cf07a1105",
                "server": "1944",
                "farm": 2,
                "title": "Lake and Skyline, City Park, Denver",
                "ispublic": 1,
                "isfriend": 0,
                "isfamily": 0,
                "url_o": "https://live.staticflickr.com/1944/45362346302_c2c1d3b576_o.jpg",
                "height_o": "1024",
                "width_o": "1536"
            },
            {
                "id": "44689496204",
                "owner": "62007874@N00",
                "secret": "7b4ebec143",
                "server": "1961",
                "farm": 2,
                "title": "City Park and Skyline, Denver",
                "ispublic": 1,
                "isfriend": 0,
                "isfamily": 0,
                "url_o": "https://live.staticflickr.com/1961/44689496204_1bae8c8e75_o.jpg",
                "height_o": "1024",
                "width_o": "1536"
            }
        ]
    },
    "stat": "ok"
}
